
************* 12/03/2021 10:24:35 AM *************
https://localhost:44375/giftcard/sendvoucherexpirationreminderemail
***********************************************

************* 12/03/2021 10:24:35 AM *************
Email schedular method Called and Set request parameter.
***********************************************

************* 12/03/2021 10:24:36 AM *************
Got Response Stream.
***********************************************

************* 12/03/2021 10:24:36 AM *************
read Response Stream.
***********************************************

************* 12/03/2021 10:24:36 AM *************
API Call Successfully.
***********************************************

************* 12/03/2021 10:24:36 AM *************
Sending Scheduler Activity Log.
***********************************************
